1,1,1,1
4,4,4,4
15,15,15,15
50,50,50,50
99,99,100,99
5,3,3,4
18,14,13,16
58,50,48,55
95,99,97,96
20,10,14,17
60,43,51,56
90,94,97,95
34,25,20,25
79,75,66,75
63,71,81,71
83,82,67,81
53,58,77,58
89,94,77,95
39,27,61,26
90,82,93,81
35,52,29,54
84,93,82,94
51,32,56,31
90,88,94,86
36,40,26,43
87,92,80,94
42,32,58,28
87,86,94,82
44,46,28,54
91,96,83,96
30,19,48,19
77,65,92,66
65,82,41,82
79,65,92,65
60,81,39,80
83,66,90,70
51,78,39,74
86,73,92,79
46,68,34,59
91,88,90,95
32,39,35,24
82,91,87,74
55,39,48,70
87,92,96,84
42,34,23,50
90,88,76,97
35,40,61,18
84,91,92,67
50,37,36,77
89,92,91,77
37,32,34,61
88,87,88,93
39,44,41,30
85,94,93,83
47,29,32,52
92,84,87,96
30,45,40,20
79,92,89,69
61,38,45,78
85,90,93,73
47,40,31,68
87,93,85,86
42,31,47,46
91,86,96,96
31,42,19,20
79,91,67,68
62,42,80,78
82,91,68,71
54,38,76,74
87,92,77,79
44,35,63,59
90,89,91,93
35,37,33,28
85,90,87,81
46,39,45,56
88,92,95,94
39,31,25,27
90,87,78,80
34,42,58,53
81,92,91,93
58,38,40,35
86,90,91,87
46,38,36,44
91,91,91,95
32,32,33,24
82,85,86,74
56,53,50,69
88,95,96,86
39,26,23,45
88,79,75,95
40,58,65,25
88,94,91,78
39,26,36,59
88,80,91,93
41,56,36,31
88,93,89,86
41,29,39,45
89,84,93,95
37,49,29,23
85,95,82,75
47,27,54,65
90,82,95,89
36,52,24,38
87,95,76,91
43,26,63,35
87,79,91,90
43,60,36,39
91,93,91,92
30,26,31,28
76,77,82,78
67,70,61,66
77,81,88,84
65,62,47,57
77,87,92,91
61,49,40,41
78,92,89,91
59,37,44,40
81,89,93,91
54,43,34,39
82,92,87,90
52,36,46,42
87,90,95,92
42,37,26,32
85,90,79,85
48,38,60,49
94,93,94,97
21,23,22,14
63,68,66,52
87,85,89,94
41,46,39,26
82,93,91,78
57,36,40,64
91,91,94,91
31,32,25,31
81,85,76,84
58,53,67,55
88,95,88,94
40,25,42,28
86,78,93,81
47,62,31,57
93,94,88,95
26,23,38,21
73,71,88,69
73,78,51,81
70,69,90,63
73,82,47,86
66,61,88,53
74,88,51,92
63,48,87,40
75,91,53,89
61,40,87,46
76,89,53,91
60,45,87,40
77,92,54,89
58,38,86,45
78,88,57,91
58,46,85,39
79,93,59,89
56,34,85,44
80,86,60,93
56,51,84,35
82,94,62,88
52,32,81,44
83,86,67,94
53,49,77,32
89,95,76,87
36,24,62,41
85,75,90,93
48,66,39,33
89,88,93,89
38,41,31,39
89,94,86,92
36,27,45,31
83,80,94,84
53,59,32,54
89,93,87,96
37,30,43,22
88,84,93,73
39,49,28,65
86,95,82,89
46,28,55,40
91,83,96,93
32,50,20,27
82,93,69,79
54,34,75,62
89,90,78,92
38,37,59,32
87,92,93,87
43,34,30,44
89,89,85,95
38,39,47,23
88,93,95,76
40,30,26,63
86,85,79,91
45,49,59,37
91,96,94,92
32,19,25,30
82,68,77,83
56,77,66,55
88,75,88,95
40,64,41,26
89,90,93,81
38,37,29,54
86,91,83,94
44,36,52,30
90,91,97,84
35,32,19,47
85,86,68,95
47,47,74,26
88,95,80,81
39,24,56,54
90,77,95,96
34,59,24,22
81,92,74,71
58,38,70,74
86,91,84,79
47,37,51,60
91,92,96,95
31,30,19,23
80,82,66,72
59,60,80,73
87,92,70,80
44,33,71,57
88,88,83,95
39,41,51,25
89,94,95,78
36,26,24,57
84,77,75,92
51,64,67,35
89,90,87,90
39,36,42,36
90,92,94,90
33,30,24,35
80,83,74,88
59,58,71,48
86,94,83,94
46,30,53,28
90,85,95,83
35,46,23,50
85,95,75,94
46,26,66,29
89,81,88,83
38,53,40,51
88,96,93,96
39,23,29,23
85,74,82,75
49,68,55,67
91,88,95,89
33,40,22,37
84,92,73,90
50,35,69,40
90,90,87,94
34,36,41,26
83,89,92,79
51,42,35,61
88,94,90,93
39,27,37,30
90,81,91,85
35,52,33,47
83,93,86,93
54,34,50,33
88,88,95,88
40,40,25,41
90,94,80,93
33,26,54,27
80,78,93,79
59,64,35,63
86,89,87,90
45,41,44,40
90,93,94,93
35,28,26,29
86,82,79,82
46,55,60,56
89,95,93,94
37,23,29,25
87,75,84,78
41,64,50,59
86,90,96,93
46,38,25,31
91,94,79,87
30,26,55,40
79,77,92,90
62,67,39,43
84,86,91,92
51,50,38,34
89,97,91,89
38,20,34,39
87,71,88,93
42,70,41,31
89,86,94,85
37,45,27,46
86,94,81,95
46,29,56,27
89,84,94,80
38,49,27,55
89,96,80,96
38,21,54,22
84,71,94,74
51,72,32,68
90,82,87,86
34,51,41,43
86,95,93,94
46,27,32,29
89,81,87,84
36,53,43,49
87,95,93,94
42,26,30,27
87,79,84,80
44,59,50,57
91,94,97,95
30,24,18,21
79,75,65,69
63,70,83,78
82,82,65,72
54,57,78,72
88,95,73,83
40,26,67,52
88,79,88,95
41,58,42,26
90,95,93,80
34,24,28,55
83,76,80,94
54,66,60,32
88,89,92,86
41,40,33,45
91,93,89,95
31,26,37,21
79,77,87,70
62,68,50,77
83,84,93,74
53,53,34,70
88,96,89,84
40,24,40,49
89,76,92,96
38,62,31,23
87,91,84,75
42,35,49,64
88,89,94,89
40,40,27,38
89,93,81,91
36,28,53,33
84,81,94,85
49,58,31,49
89,95,85,97
37,25,47,20
88,78,94,71
39,60,27,68
86,92,80,86
46,33,58,48
91,89,95,96
31,37,23,20
81,88,73,68
58,47,71,78
87,94,84,74
42,27,51,66
88,81,95,88
39,53,25,41
89,96,79,94
37,22,57,28
85,74,93,80
49,69,32,58
89,87,86,95
38,43,45,25
90,96,95,79
35,22,23,57
82,72,73,93
54,72,71,35
88,83,83,89
39,51,51,38
89,96,96,93
36,21,21,30
84,71,70,83
51,72,74,55
90,83,80,95
35,50,55,23
87,95,94,74
43,27,29,67
88,82,84,89
40,53,49,40
89,95,95,93
36,24,23,28
83,74,73,82
54,69,70,58
88,86,85,94
39,45,46,26
90,96,95,81
34,21,23,52
82,70,74,94
55,75,69,31
88,80,86,86
39,56,45,45
88,94,95,94
38,27,26,27
86,80,79,81
45,58,60,56
90,95,94,96
33,22,27,21
84,73,79,71
51,69,61,72
89,86,93,83
38,45,30,49
88,96,84,96
39,23,49,23
85,75,95,73
48,67,29,69
91,88,84,86
33,39,47,42
83,90,94,92
52,40,30,36
90,94,85,91
35,26,45,34
85,79,94,87
48,61,30,46
89,92,85,96
37,32,46,21
89,87,96,74
37,42,23,64
84,92,74,88
51,35,68,44
90,90,86,95
35,36,43,23
87,91,93,75
44,36,31,65
89,91,85,88
39,34,46,41
89,89,95,93
37,39,24,29
83,91,75,81
52,39,68,57
90,92,87,95
36,31,41,24
87,85,92,76
41,48,32,64
88,96,86,90
41,23,45,38
90,75,96,92
34,62,22,32
82,91,73,85
54,40,72,52
88,93,83,95
41,30,51,25
91,86,97,80
31,42,18,54
79,91,65,93
62,41,82,37
84,92,66,89
51,34,77,43
89,89,76,95
38,38,63,25
87,92,91,78
42,33,35,60
89,89,89,94
39,39,39,28
87,92,92,81
42,34,34,56
88,89,88,95
41,40,42,25
89,94,94,78
36,27,26,58
84,79,77,92
50,60,64,36
89,93,91,90
37,30,34,36
89,84,89,91
37,48,39,34
84,95,92,87
50,29,36,47
90,85,92,97
34,45,31,19
85,94,84,68
47,29,51,74
90,83,96,79
36,50,21,56
86,95,72,95
45,26,69,28
88,81,85,81
40,55,47,54
90,97,95,96
34,20,23,22
81,68,73,72
57,77,72,73
86,75,81,80
46,65,56,58
92,90,95,95
28,33,21,22
76,84,69,70
68,57,80,79
78,90,68,70
63,43,78,78
80,92,71,73
57,37,75,72
82,89,76,80
52,42,66,60
85,94,87,91
47,31,44,36
88,86,95,91
39,46,26,34
88,95,79,88
39,24,58,41
86,75,93,93
45,64,30,32
90,90,85,87
35,34,46,42
85,88,94,93
47,45,29,33
89,95,84,88
37,23,49,41
88,76,95,93
40,62,25,31
85,91,77,85
47,36,63,49
92,91,91,97
30,32,31,18
79,83,83,65
62,57,57,81
85,92,94,68
47,34,29,74
88,88,84,79
42,41,50,58
91,94,96,95
32,24,20,23
80,76,67,74
60,70,79,72
84,83,71,82
50,53,73,57
89,96,82,95
36,21,52,23
87,71,96,75
43,68,24,64
89,86,76,90
38,44,62,37
87,95,91,90
41,26,35,38
87,79,88,92
43,59,42,34
90,94,94,89
33,26,27,37
83,78,78,90
54,64,63,42
88,90,91,93
40,37,34,30
90,92,89,86
34,30,38,44
83,83,89,92
54,54,43,36
89,95,94,90
39,25,29,37
89,78,83,91
36,58,49,35
84,93,95,87
50,34,28,46
90,89,82,95
35,38,52,24
86,91,94,77
45,37,29,62
89,91,83,91
38,34,50,35
89,88,97,89
37,40,20,39
84,91,70,91
50,38,73,37
90,92,81,92
35,30,53,31
87,85,96,84
43,48,24,50
88,95,77,95
40,26,60,24
89,79,93,78
36,56,29,58
84,93,81,92
51,33,57,36
89,88,95,91
39,42,26,35
90,93,80,90
33,27,54,35
80,79,94,87
59,64,34,50
85,89,88,95
47,41,43,27
90,93,94,82
34,27,25,52
85,80,77,95
48,58,63,28
89,94,91,82
36,27,33,51
87,81,86,95
43,56,46,25
87,95,95,78
44,27,26,61
92,82,81,92
29,50,52,28
76,91,93,78
68,43,40,67
76,90,89,83
66,45,47,58
76,91,92,90
64,41,39,44
76,89,89,90
61,45,46,42
78,92,92,91
58,38,37,40
79,89,88,89
57,43,45,43
81,91,93,92
54,38,35,37
82,90,87,90
53,42,48,41
85,93,95,93
46,33,26,31
87,87,79,85
43,44,58,48
93,97,95,96
26,16,22,18
70,60,69,62
77,90,82,89
60,43,59,46
81,92,91,94
50,34,37,32
81,87,88,84
57,48,46,53
87,95,96,94
39,24,23,26
78,74,73,77
67,74,75,69
85,78,78,85
49,63,62,50
94,94,93,97
21,23,25,14
64,68,70,53
86,85,84,95
42,47,51,26
83,93,94,78
53,33,32,63
92,88,87,92
28,37,40,28
76,86,89,79
69,52,47,66
78,93,92,85
62,37,39,53
80,88,90,92
57,46,42,37
83,93,92,89
51,34,35,42
86,88,89,94
45,42,41,29
88,94,92,83
41,28,32,51
90,83,87,96
33,50,40,20
81,93,90,69
58,36,42,77
85,90,92,76
47,38,33,65
91,93,89,90
30,27,36,33
80,79,88,85
60,63,47,54
86,90,94,95
46,39,30,28
88,92,84,82
39,33,50,52
90,87,96,96
35,41,20,22
83,91,69,72
54,39,76,72
88,92,78,82
40,32,60,52
90,87,94,96
33,40,25,22
81,90,77,72
57,42,66,74
87,94,87,80
43,29,44,58
90,83,94,95
35,49,25,24
84,94,76,77
50,29,65,64
90,85,91,91
36,46,34,34
87,95,88,88
42,25,42,42
87,77,94,93
45,63,28,30
92,92,83,86
28,29,48,42
75,79,92,91
69,66,41,44
75,84,90,91
67,57,46,43
75,90,91,90
65,45,43,43
74,90,90,90
64,45,45,43
75,91,90,91
62,41,44,41
75,89,90,90
62,45,43,44
75,91,90,91
61,42,43,40
75,90,91,89
61,43,41,46
76,90,90,92
60,42,43,39
76,90,90,89
61,44,43,47
76,92,90,92
60,38,42,39
76,89,90,89
61,45,44,45
76,91,91,92
59,40,39,38
76,89,89,88
61,47,45,48
77,92,92,92
59,38,39,38
76,88,88,89
62,48,48,46
77,92,91,92
58,38,39,37
76,88,88,87
63,48,48,50
77,92,91,91
57,37,40,39
75,86,89,89
64,52,46,47
77,92,91,93
57,37,39,36
75,88,87,86
65,50,50,52
76,92,92,91
57,37,36,40
75,86,86,89
65,54,52,47
76,92,91,93
57,37,39,36
75,86,87,86
65,52,50,52
76,92,92,92
57,38,37,36
75,87,86,87
65,51,52,51
76,92,92,92
57,37,38,37
75,87,88,88
65,51,49,49
76,92,92,93
57,38,37,36
75,88,86,86
65,48,53,52
76,92,91,91
57,39,39,40
75,87,88,89
65,51,48,48
76,92,92,92
57,39,37,37
75,88,87,87
65,48,52,52
76,93,91,92
57,36,40,37
75,86,89,87
65,53,46,52
76,91,92,91
57,40,39,39
75,89,87,89
65,46,49,47
76,91,92,91
57,40,37,40
75,88,87,88
65,47,52,48
76,92,92,92
57,38,37,37
75,88,87,87
65,49,52,52
76,93,92,92
57,36,38,36
75,86,88,86
65,52,49,53
76,92,93,92
57,38,36,38
75,88,87,88
65,48,51,47
76,92,92,92
57,37,38,38
75,86,88,87
65,52,48,52
76,91,91,91
57,40,39,39
75,89,88,87
65,47,49,50
76,93,91,91
57,36,40,39
75,85,88,89
65,54,48,47
76,91,92,91
57,40,37,40
75,88,87,89
65,48,51,48
76,92,93,93
57,38,35,35
75,87,86,86
65,51,53,52
76,92,92,91
57,36,38,40
75,86,88,88
65,53,48,49
76,92,93,91
57,39,36,39
75,88,86,89
65,49,52,48
76,92,92,93
57,38,38,36
75,88,88,86
65,48,49,52
76,91,93,92
57,39,36,37
75,89,86,87
65,46,52,50
76,91,93,92
57,39,36,38
75,89,86,88
65,47,53,49
76,92,92,91
57,38,38,40
75,88,87,89
65,49,51,46
76,91,93,92
57,39,36,37
75,89,85,87
65,46,54,51
76,92,91,91
57,38,40,39
75,87,89,87
65,50,47,50
76,92,92,93
57,37,38,35
75,86,87,86
65,53,52,53
76,92,91,92
57,38,39,38
75,89,88,88
65,48,48,49
76,92,91,92
57,37,39,38
75,87,88,88
65,51,50,49
76,92,92,91
57,38,37,40
75,87,87,88
65,50,51,49
76,91,92,92
57,39,39,37
75,89,87,86
65,47,50,53
76,91,91,92
57,39,39,38
75,87,89,88
65,50,47,48
76,91,92,92
57,39,39,39
75,89,88,88
65,47,49,49
76,92,92,91
57,38,37,40
75,87,86,88
65,51,53,49
76,92,92,92
57,38,38,38
75,88,87,87
65,50,50,52
76,93,92,92
57,36,36,38
75,86,87,88
65,52,51,48
76,92,93,92
57,37,36,38
75,87,86,87
65,51,53,50
76,92,91,91
57,37,39,39
75,86,87,88
65,52,50,49
76,91,93,91
57,39,36,40
75,89,87,89
65,47,51,47
76,92,93,91
57,38,36,39
75,88,86,88
65,50,52,48
76,91,92,93
57,40,37,35
75,89,87,86
65,46,52,53
76,92,92,91
57,38,37,39
75,88,87,89
65,49,52,46
76,93,93,92
57,37,37,36
75,87,87,87
65,51,52,51
76,91,92,92
57,39,38,37
75,89,88,87
65,47,48,52
76,92,93,91
57,37,36,39
75,87,86,88
65,50,52,49
76,91,92,92
57,39,39,38
75,88,89,88
65,49,47,49
76,92,91,92
57,38,39,37
75,87,88,86
65,51,48,53
76,91,92,92
57,39,38,37
75,89,88,86
65,47,48,53
76,92,92,92
57,38,37,37
75,87,87,86
65,51,52,52
76,92,91,92
57,39,40,37
75,89,88,86
65,47,49,53
76,92,92,92
57,37,38,37
75,86,88,86
65,54,49,53
76,91,92,92
57,40,36,37
75,89,86,86
65,48,51,53
76,93,91,91
57,36,39,39
75,85,89,89
65,54,46,46
76,91,91,92
57,41,39,37
75,89,88,87
65,47,49,51
76,92,92,92
57,37,37,37
75,86,86,87
65,52,52,51
76,91,92,92
57,41,37,38
75,90,87,88
65,45,51,49
76,91,93,92
57,41,36,38
75,89,86,87
65,46,52,51
76,91,92,91
57,40,38,39
75,89,88,88
65,47,48,49
76,91,92,92
57,41,38,38
75,89,86,87
65,46,52,50
76,91,92,93
57,39,38,36
75,89,87,86
65,47,50,52
76,92,92,92
57,37,38,38
75,87,89,88
65,50,47,49
76,93,91,92
57,35,39,37
75,85,88,86
65,54,48,54
76,91,91,93
57,40,40,36
75,88,89,86
65,48,48,53
76,91,92,91
57,39,38,40
75,88,88,89
65,50,48,46
76,92,92,91
57,38,36,39
75,88,86,88
65,48,53,49
76,92,92,92
57,37,37,38
75,87,86,88
65,51,52,48
76,93,92,93
57,36,37,36
75,86,87,86
65,52,52,54
76,92,91,92
57,38,40,37
75,88,89,87
